{
  "start-scene": "5dcd99cb-77a4-4c95-a7d8-4b5b45295ae5",
  "group-list": [
    "default"
  ],
  "collision-matrix": [
    [
      true
    ]
  ],
  "excluded-modules": [
    "Geom Utils",
    "3D",
    "3D Primitive",
    "3D Physics/cannon.js",
    "3D Physics/Builtin",
    "3D Particle"
  ],
  "last-module-event-record-time": 1591092572421,
  "design-resolution-width": 960,
  "design-resolution-height": 640,
  "fit-width": false,
  "fit-height": true,
  "use-project-simulator-setting": false,
  "simulator-orientation": false,
  "use-customize-simulator": false,
  "simulator-resolution": {
    "width": 960,
    "height": 640
  },
  "assets-sort-type": "name",
  "facebook": {
    "enable": false,
    "appID": "",
    "live": {
      "enable": false
    },
    "audience": {
      "enable": false
    }
  },
  "migrate-history": []
}
